[
    { 
      "label": "audio/mpeg",
      "value" : 1105111
	},
	{ 
      "label": "audio/x-m4a",
      "value" : 35545
	},
	{ 
      "label": "video/mp4",
      "value" : 35440
	},
	{ 
      "label": "audio/x-mpg",
      "value" : 30203
	},
	{ 
      "label": "video/x-m4v",
      "value" : 12686
	},
	{ 
      "label": "video/x-mp4",
      "value" : 7754
	},
	{ 
      "label": "audio/mp3",
      "value" : 7621
	},
	{ 
      "label": "audio/mpeg3",
      "value" : 5290
	},
	{ 
      "label": "audio/mp4",
      "value" : 4886
	},
	{ 
      "label": "video/mpeg",
      "value" : 4287
	}
]