date,category,count
2006-11-01,Arts,23
2006-11-01,Business,18
2006-11-01,Comedy,18
2006-11-01,Education,13
2006-11-01,Games & Hobbies,6
2006-11-01,Health,13
2006-11-01,Kids & Family,14
2006-11-01,Music,26
2006-11-01,News & Politics,10
2006-11-01,Religion & Spirituality,28
2006-11-01,Religion & Spirituality/Christianity,1
2006-11-01,Society & Culture,15
2006-11-01,Sports & Recreation,9
2006-11-01,TV & Film,14
2006-11-01,Technology,11
2006-12-01,Arts,195
2006-12-01,Business,88
2006-12-01,Comedy,109
2006-12-01,Education,106
2006-12-01,Games & Hobbies,82
2006-12-01,Health,89
2006-12-01,Kids & Family,132
2006-12-01,Music,215
2006-12-01,News & Politics,74
2006-12-01,Religion & Spirituality,206
2006-12-01,Religion & Spirituality/Christianity,8
2006-12-01,Society & Culture,95
2006-12-01,Sports & Recreation,66
2006-12-01,TV & Film,84
2006-12-01,Technology,111
2007-01-01,Arts,168
2007-01-01,Business,93
2007-01-01,Comedy,137
2007-01-01,Education,174
2007-01-01,Games & Hobbies,84
2007-01-01,Health,88
2007-01-01,Kids & Family,137
2007-01-01,Music,247
2007-01-01,News & Politics,66
2007-01-01,Religion & Spirituality,236
2007-01-01,Religion & Spirituality/Christianity,4
2007-01-01,Society & Culture,117
2007-01-01,Sports & Recreation,69
2007-01-01,TV & Film,87
2007-01-01,Technology,105
2007-02-01,Arts,177
2007-02-01,Business,113
2007-02-01,Comedy,137
2007-02-01,Education,205
2007-02-01,Games & Hobbies,68
2007-02-01,Health,93
2007-02-01,Kids & Family,152
2007-02-01,Music,302
2007-02-01,News & Politics,69
2007-02-01,Religion & Spirituality,224
2007-02-01,Religion & Spirituality/Christianity,4
2007-02-01,Society & Culture,132
2007-02-01,Sports & Recreation,64
2007-02-01,TV & Film,86
2007-02-01,Technology,99
2007-03-01,Arts,197
2007-03-01,Business,163
2007-03-01,Comedy,161
2007-03-01,Education,229
2007-03-01,Games & Hobbies,90
2007-03-01,Health,102
2007-03-01,Kids & Family,212
2007-03-01,Music,352
2007-03-01,News & Politics,79
2007-03-01,Religion & Spirituality,281
2007-03-01,Religion & Spirituality/Christianity,20
2007-03-01,Society & Culture,152
2007-03-01,Sports & Recreation,66
2007-03-01,TV & Film,100
2007-03-01,Technology,145
2007-04-01,Arts,157
2007-04-01,Business,147
2007-04-01,Comedy,208
2007-04-01,Education,189
2007-04-01,Games & Hobbies,85
2007-04-01,Health,103
2007-04-01,Kids & Family,150
2007-04-01,Music,333
2007-04-01,News & Politics,86
2007-04-01,Religion & Spirituality,272
2007-04-01,Religion & Spirituality/Christianity,13
2007-04-01,Society & Culture,118
2007-04-01,Sports & Recreation,61
2007-04-01,TV & Film,98
2007-04-01,Technology,147
2007-05-01,Arts,231
2007-05-01,Business,161
2007-05-01,Comedy,184
2007-05-01,Education,197
2007-05-01,Games & Hobbies,100
2007-05-01,Health,98
2007-05-01,Kids & Family,182
2007-05-01,Music,411
2007-05-01,News & Politics,80
2007-05-01,Religion & Spirituality,293
2007-05-01,Religion & Spirituality/Christianity,12
2007-05-01,Society & Culture,156
2007-05-01,Sports & Recreation,63
2007-05-01,TV & Film,119
2007-05-01,Technology,170
2007-06-01,Arts,184
2007-06-01,Business,148
2007-06-01,Comedy,342
2007-06-01,Education,232
2007-06-01,Games & Hobbies,92
2007-06-01,Health,111
2007-06-01,Kids & Family,214
2007-06-01,Music,359
2007-06-01,News & Politics,77
2007-06-01,Religion & Spirituality,275
2007-06-01,Religion & Spirituality/Christianity,14
2007-06-01,Society & Culture,175
2007-06-01,Sports & Recreation,56
2007-06-01,TV & Film,97
2007-06-01,Technology,126
2007-07-01,Arts,193
2007-07-01,Business,144
2007-07-01,Comedy,179
2007-07-01,Education,141
2007-07-01,Games & Hobbies,95
2007-07-01,Health,110
2007-07-01,Kids & Family,215
2007-07-01,Music,372
2007-07-01,News & Politics,84
2007-07-01,Religion & Spirituality,279
2007-07-01,Religion & Spirituality/Christianity,13
2007-07-01,Society & Culture,219
2007-07-01,Sports & Recreation,116
2007-07-01,TV & Film,95
2007-07-01,Technology,128
2007-08-01,Arts,192
2007-08-01,Business,120
2007-08-01,Comedy,156
2007-08-01,Education,123
2007-08-01,Games & Hobbies,98
2007-08-01,Health,109
2007-08-01,Kids & Family,184
2007-08-01,Music,302
2007-08-01,News & Politics,83
2007-08-01,Religion & Spirituality,260
2007-08-01,Religion & Spirituality/Christianity,18
2007-08-01,Society & Culture,173
2007-08-01,Sports & Recreation,86
2007-08-01,TV & Film,95
2007-08-01,Technology,107
2007-09-01,Arts,189
2007-09-01,Business,135
2007-09-01,Comedy,159
2007-09-01,Education,174
2007-09-01,Games & Hobbies,108
2007-09-01,Health,110
2007-09-01,Kids & Family,245
2007-09-01,Music,295
2007-09-01,News & Politics,98
2007-09-01,Religion & Spirituality,259
2007-09-01,Religion & Spirituality/Christianity,17
2007-09-01,Society & Culture,174
2007-09-01,Sports & Recreation,84
2007-09-01,TV & Film,96
2007-09-01,Technology,107
2007-10-01,Arts,253
2007-10-01,Business,148
2007-10-01,Comedy,148
2007-10-01,Education,229
2007-10-01,Games & Hobbies,105
2007-10-01,Health,87
2007-10-01,Kids & Family,259
2007-10-01,Music,324
2007-10-01,News & Politics,99
2007-10-01,Religion & Spirituality,349
2007-10-01,Religion & Spirituality/Christianity,15
2007-10-01,Society & Culture,194
2007-10-01,Sports & Recreation,111
2007-10-01,TV & Film,125
2007-10-01,Technology,111
2007-11-01,Arts,173
2007-11-01,Business,131
2007-11-01,Comedy,129
2007-11-01,Education,193
2007-11-01,Games & Hobbies,102
2007-11-01,Health,96
2007-11-01,Kids & Family,259
2007-11-01,Music,305
2007-11-01,News & Politics,82
2007-11-01,Religion & Spirituality,284
2007-11-01,Religion & Spirituality/Christianity,19
2007-11-01,Society & Culture,177
2007-11-01,Sports & Recreation,104
2007-11-01,TV & Film,93
2007-11-01,Technology,119
2007-12-01,Arts,200
2007-12-01,Business,123
2007-12-01,Comedy,190
2007-12-01,Education,120
2007-12-01,Games & Hobbies,92
2007-12-01,Health,91
2007-12-01,Kids & Family,230
2007-12-01,Music,284
2007-12-01,News & Politics,72
2007-12-01,Religion & Spirituality,299
2007-12-01,Religion & Spirituality/Christianity,15
2007-12-01,Society & Culture,160
2007-12-01,Sports & Recreation,85
2007-12-01,TV & Film,82
2007-12-01,Technology,90
2008-01-01,Arts,199
2008-01-01,Business,141
2008-01-01,Comedy,145
2008-01-01,Education,152
2008-01-01,Games & Hobbies,120
2008-01-01,Health,108
2008-01-01,Kids & Family,285
2008-01-01,Music,287
2008-01-01,News & Politics,65
2008-01-01,Religion & Spirituality,339
2008-01-01,Religion & Spirituality/Christianity,18
2008-01-01,Society & Culture,177
2008-01-01,Sports & Recreation,123
2008-01-01,TV & Film,79
2008-01-01,Technology,101
2008-02-01,Arts,243
2008-02-01,Business,154
2008-02-01,Comedy,147
2008-02-01,Education,163
2008-02-01,Games & Hobbies,116
2008-02-01,Health,111
2008-02-01,Kids & Family,283
2008-02-01,Music,255
2008-02-01,News & Politics,80
2008-02-01,Religion & Spirituality,339
2008-02-01,Religion & Spirituality/Christianity,17
2008-02-01,Society & Culture,200
2008-02-01,Sports & Recreation,121
2008-02-01,TV & Film,116
2008-02-01,Technology,120
2008-03-01,Arts,254
2008-03-01,Business,147
2008-03-01,Comedy,164
2008-03-01,Education,163
2008-03-01,Games & Hobbies,120
2008-03-01,Health,108
2008-03-01,Kids & Family,273
2008-03-01,Music,304
2008-03-01,News & Politics,70
2008-03-01,Religion & Spirituality,489
2008-03-01,Religion & Spirituality/Christianity,25
2008-03-01,Society & Culture,217
2008-03-01,Sports & Recreation,103
2008-03-01,TV & Film,93
2008-03-01,Technology,108
2008-04-01,Arts,259
2008-04-01,Business,153
2008-04-01,Comedy,155
2008-04-01,Education,156
2008-04-01,Games & Hobbies,113
2008-04-01,Health,102
2008-04-01,Kids & Family,297
2008-04-01,Music,290
2008-04-01,News & Politics,73
2008-04-01,Religion & Spirituality,413
2008-04-01,Religion & Spirituality/Christianity,17
2008-04-01,Society & Culture,219
2008-04-01,Sports & Recreation,111
2008-04-01,TV & Film,118
2008-04-01,Technology,105
2008-05-01,Arts,251
2008-05-01,Business,167
2008-05-01,Comedy,173
2008-05-01,Education,213
2008-05-01,Games & Hobbies,112
2008-05-01,Health,112
2008-05-01,Kids & Family,237
2008-05-01,Music,300
2008-05-01,News & Politics,76
2008-05-01,Religion & Spirituality,438
2008-05-01,Religion & Spirituality/Christianity,25
2008-05-01,Society & Culture,240
2008-05-01,Sports & Recreation,115
2008-05-01,TV & Film,130
2008-05-01,Technology,104
2008-06-01,Arts,243
2008-06-01,Business,167
2008-06-01,Comedy,160
2008-06-01,Education,173
2008-06-01,Games & Hobbies,110
2008-06-01,Health,123
2008-06-01,Kids & Family,95
2008-06-01,Music,313
2008-06-01,News & Politics,87
2008-06-01,Religion & Spirituality,471
2008-06-01,Religion & Spirituality/Christianity,17
2008-06-01,Society & Culture,223
2008-06-01,Sports & Recreation,104
2008-06-01,TV & Film,97
2008-06-01,Technology,131
2008-07-01,Arts,260
2008-07-01,Business,160
2008-07-01,Comedy,153
2008-07-01,Education,139
2008-07-01,Games & Hobbies,114
2008-07-01,Health,131
2008-07-01,Kids & Family,119
2008-07-01,Music,388
2008-07-01,News & Politics,81
2008-07-01,Religion & Spirituality,447
2008-07-01,Religion & Spirituality/Christianity,19
2008-07-01,Society & Culture,221
2008-07-01,Sports & Recreation,126
2008-07-01,TV & Film,98
2008-07-01,Technology,110
2008-08-01,Arts,303
2008-08-01,Business,186
2008-08-01,Comedy,130
2008-08-01,Education,153
2008-08-01,Games & Hobbies,153
2008-08-01,Health,104
2008-08-01,Kids & Family,113
2008-08-01,Music,300
2008-08-01,News & Politics,70
2008-08-01,Religion & Spirituality,429
2008-08-01,Religion & Spirituality/Christianity,24
2008-08-01,Society & Culture,201
2008-08-01,Sports & Recreation,156
2008-08-01,TV & Film,91
2008-08-01,Technology,118
2008-09-01,Arts,217
2008-09-01,Business,170
2008-09-01,Comedy,127
2008-09-01,Education,193
2008-09-01,Games & Hobbies,126
2008-09-01,Health,103
2008-09-01,Kids & Family,66
2008-09-01,Music,346
2008-09-01,News & Politics,109
2008-09-01,Religion & Spirituality,483
2008-09-01,Religion & Spirituality/Christianity,16
2008-09-01,Society & Culture,193
2008-09-01,Sports & Recreation,210
2008-09-01,TV & Film,128
2008-09-01,Technology,136
2008-10-01,Arts,259
2008-10-01,Business,181
2008-10-01,Comedy,151
2008-10-01,Education,220
2008-10-01,Games & Hobbies,146
2008-10-01,Health,102
2008-10-01,Kids & Family,111
2008-10-01,Music,444
2008-10-01,News & Politics,107
2008-10-01,Religion & Spirituality,465
2008-10-01,Religion & Spirituality/Christianity,20
2008-10-01,Society & Culture,243
2008-10-01,Sports & Recreation,222
2008-10-01,TV & Film,170
2008-10-01,Technology,131
2008-11-01,Arts,250
2008-11-01,Business,171
2008-11-01,Comedy,139
2008-11-01,Education,223
2008-11-01,Games & Hobbies,105
2008-11-01,Health,87
2008-11-01,Kids & Family,110
2008-11-01,Music,431
2008-11-01,News & Politics,79
2008-11-01,Religion & Spirituality,499
2008-11-01,Religion & Spirituality/Christianity,19
2008-11-01,Society & Culture,221
2008-11-01,Sports & Recreation,208
2008-11-01,TV & Film,109
2008-11-01,Technology,112
2008-12-01,Arts,264
2008-12-01,Business,176
2008-12-01,Comedy,139
2008-12-01,Education,162
2008-12-01,Games & Hobbies,127
2008-12-01,Health,103
2008-12-01,Kids & Family,125
2008-12-01,Music,407
2008-12-01,News & Politics,91
2008-12-01,Religion & Spirituality,610
2008-12-01,Religion & Spirituality/Christianity,19
2008-12-01,Society & Culture,198
2008-12-01,Sports & Recreation,168
2008-12-01,TV & Film,113
2008-12-01,Technology,114
2009-01-01,Arts,241
2009-01-01,Business,257
2009-01-01,Comedy,154
2009-01-01,Education,174
2009-01-01,Games & Hobbies,146
2009-01-01,Health,107
2009-01-01,Kids & Family,179
2009-01-01,Music,452
2009-01-01,News & Politics,117
2009-01-01,Religion & Spirituality,586
2009-01-01,Religion & Spirituality/Christianity,20
2009-01-01,Society & Culture,239
2009-01-01,Sports & Recreation,185
2009-01-01,TV & Film,117
2009-01-01,Technology,113
2009-02-01,Arts,261
2009-02-01,Business,221
2009-02-01,Comedy,161
2009-02-01,Education,160
2009-02-01,Games & Hobbies,141
2009-02-01,Health,106
2009-02-01,Kids & Family,245
2009-02-01,Music,428
2009-02-01,News & Politics,99
2009-02-01,Religion & Spirituality,595
2009-02-01,Religion & Spirituality/Christianity,24
2009-02-01,Society & Culture,239
2009-02-01,Sports & Recreation,217
2009-02-01,TV & Film,150
2009-02-01,Technology,107
2009-03-01,Arts,339
2009-03-01,Business,231
2009-03-01,Comedy,176
2009-03-01,Education,216
2009-03-01,Games & Hobbies,185
2009-03-01,Health,129
2009-03-01,Kids & Family,226
2009-03-01,Music,487
2009-03-01,News & Politics,104
2009-03-01,Religion & Spirituality,716
2009-03-01,Religion & Spirituality/Christianity,35
2009-03-01,Society & Culture,263
2009-03-01,Sports & Recreation,232
2009-03-01,TV & Film,156
2009-03-01,Technology,125
2009-04-01,Arts,285
2009-04-01,Business,223
2009-04-01,Comedy,185
2009-04-01,Education,207
2009-04-01,Games & Hobbies,163
2009-04-01,Health,129
2009-04-01,Kids & Family,217
2009-04-01,Music,504
2009-04-01,News & Politics,117
2009-04-01,Religion & Spirituality,548
2009-04-01,Religion & Spirituality/Christianity,35
2009-04-01,Society & Culture,257
2009-04-01,Sports & Recreation,200
2009-04-01,TV & Film,201
2009-04-01,Technology,147
2009-05-01,Arts,300
2009-05-01,Business,239
2009-05-01,Comedy,183
2009-05-01,Education,182
2009-05-01,Games & Hobbies,168
2009-05-01,Health,129
2009-05-01,Kids & Family,234
2009-05-01,Music,659
2009-05-01,News & Politics,109
2009-05-01,Religion & Spirituality,592
2009-05-01,Religion & Spirituality/Christianity,27
2009-05-01,Society & Culture,254
2009-05-01,Sports & Recreation,188
2009-05-01,TV & Film,159
2009-05-01,Technology,141
2009-06-01,Arts,299
2009-06-01,Business,209
2009-06-01,Comedy,177
2009-06-01,Education,350
2009-06-01,Games & Hobbies,172
2009-06-01,Health,126
2009-06-01,Kids & Family,160
2009-06-01,Music,570
2009-06-01,News & Politics,110
2009-06-01,Religion & Spirituality,551
2009-06-01,Religion & Spirituality/Christianity,24
2009-06-01,Society & Culture,274
2009-06-01,Sports & Recreation,139
2009-06-01,TV & Film,139
2009-06-01,Technology,153
2009-07-01,Arts,257
2009-07-01,Business,226
2009-07-01,Comedy,186
2009-07-01,Education,189
2009-07-01,Games & Hobbies,179
2009-07-01,Health,128
2009-07-01,Kids & Family,83
2009-07-01,Music,468
2009-07-01,News & Politics,138
2009-07-01,Religion & Spirituality,641
2009-07-01,Religion & Spirituality/Christianity,24
2009-07-01,Society & Culture,279
2009-07-01,Sports & Recreation,157
2009-07-01,TV & Film,161
2009-07-01,Technology,170
2009-08-01,Arts,366
2009-08-01,Business,223
2009-08-01,Comedy,186
2009-08-01,Education,204
2009-08-01,Games & Hobbies,174
2009-08-01,Health,132
2009-08-01,Kids & Family,133
2009-08-01,Music,499
2009-08-01,News & Politics,148
2009-08-01,Religion & Spirituality,587
2009-08-01,Religion & Spirituality/Christianity,25
2009-08-01,Society & Culture,270
2009-08-01,Sports & Recreation,203
2009-08-01,TV & Film,154
2009-08-01,Technology,137
2009-09-01,Arts,308
2009-09-01,Business,261
2009-09-01,Comedy,188
2009-09-01,Education,188
2009-09-01,Games & Hobbies,175
2009-09-01,Health,128
2009-09-01,Kids & Family,149
2009-09-01,Music,579
2009-09-01,News & Politics,139
2009-09-01,Religion & Spirituality,563
2009-09-01,Religion & Spirituality/Christianity,23
2009-09-01,Society & Culture,403
2009-09-01,Sports & Recreation,271
2009-09-01,TV & Film,161
2009-09-01,Technology,154
2009-10-01,Arts,240
2009-10-01,Business,299
2009-10-01,Comedy,186
2009-10-01,Education,186
2009-10-01,Games & Hobbies,188
2009-10-01,Health,133
2009-10-01,Kids & Family,160
2009-10-01,Music,582
2009-10-01,News & Politics,148
2009-10-01,Religion & Spirituality,594
2009-10-01,Religion & Spirituality/Christianity,28
2009-10-01,Society & Culture,428
2009-10-01,Sports & Recreation,288
2009-10-01,TV & Film,184
2009-10-01,Technology,158
2009-11-01,Arts,319
2009-11-01,Business,217
2009-11-01,Comedy,193
2009-11-01,Education,175
2009-11-01,Games & Hobbies,177
2009-11-01,Health,162
2009-11-01,Kids & Family,171
2009-11-01,Music,583
2009-11-01,News & Politics,185
2009-11-01,Religion & Spirituality,596
2009-11-01,Religion & Spirituality/Christianity,25
2009-11-01,Society & Culture,333
2009-11-01,Sports & Recreation,332
2009-11-01,TV & Film,203
2009-11-01,Technology,179
2009-12-01,Arts,277
2009-12-01,Business,239
2009-12-01,Comedy,229
2009-12-01,Education,205
2009-12-01,Games & Hobbies,178
2009-12-01,Health,149
2009-12-01,Kids & Family,145
2009-12-01,Music,541
2009-12-01,News & Politics,124
2009-12-01,Religion & Spirituality,1220
2009-12-01,Religion & Spirituality/Christianity,34
2009-12-01,Society & Culture,330
2009-12-01,Sports & Recreation,231
2009-12-01,TV & Film,198
2009-12-01,Technology,177
2010-01-01,Arts,278
2010-01-01,Business,263
2010-01-01,Comedy,225
2010-01-01,Education,265
2010-01-01,Games & Hobbies,188
2010-01-01,Health,157
2010-01-01,Kids & Family,140
2010-01-01,Music,686
2010-01-01,News & Politics,163
2010-01-01,Religion & Spirituality,657
2010-01-01,Religion & Spirituality/Christianity,32
2010-01-01,Society & Culture,295
2010-01-01,Sports & Recreation,327
2010-01-01,TV & Film,166
2010-01-01,Technology,202
2010-02-01,Arts,277
2010-02-01,Business,256
2010-02-01,Comedy,233
2010-02-01,Education,180
2010-02-01,Games & Hobbies,186
2010-02-01,Health,173
2010-02-01,Kids & Family,134
2010-02-01,Music,554
2010-02-01,News & Politics,176
2010-02-01,Religion & Spirituality,679
2010-02-01,Religion & Spirituality/Christianity,40
2010-02-01,Society & Culture,379
2010-02-01,Sports & Recreation,230
2010-02-01,TV & Film,212
2010-02-01,Technology,172
2010-03-01,Arts,313
2010-03-01,Business,281
2010-03-01,Comedy,300
2010-03-01,Education,288
2010-03-01,Games & Hobbies,186
2010-03-01,Health,178
2010-03-01,Kids & Family,182
2010-03-01,Music,655
2010-03-01,News & Politics,189
2010-03-01,Religion & Spirituality,696
2010-03-01,Religion & Spirituality/Christianity,26
2010-03-01,Society & Culture,416
2010-03-01,Sports & Recreation,270
2010-03-01,TV & Film,241
2010-03-01,Technology,221
2010-04-01,Arts,340
2010-04-01,Business,302
2010-04-01,Comedy,255
2010-04-01,Education,236
2010-04-01,Games & Hobbies,205
2010-04-01,Health,152
2010-04-01,Kids & Family,155
2010-04-01,Music,641
2010-04-01,News & Politics,197
2010-04-01,Religion & Spirituality,703
2010-04-01,Religion & Spirituality/Christianity,28
2010-04-01,Society & Culture,323
2010-04-01,Sports & Recreation,277
2010-04-01,TV & Film,257
2010-04-01,Technology,209
2010-05-01,Arts,324
2010-05-01,Business,307
2010-05-01,Comedy,266
2010-05-01,Education,260
2010-05-01,Games & Hobbies,178
2010-05-01,Health,154
2010-05-01,Kids & Family,135
2010-05-01,Music,811
2010-05-01,News & Politics,186
2010-05-01,Religion & Spirituality,639
2010-05-01,Religion & Spirituality/Christianity,34
2010-05-01,Society & Culture,367
2010-05-01,Sports & Recreation,287
2010-05-01,TV & Film,251
2010-05-01,Technology,187
2010-06-01,Arts,332
2010-06-01,Business,334
2010-06-01,Comedy,294
2010-06-01,Education,261
2010-06-01,Games & Hobbies,190
2010-06-01,Health,185
2010-06-01,Kids & Family,104
2010-06-01,Music,599
2010-06-01,News & Politics,161
2010-06-01,Religion & Spirituality,552
2010-06-01,Religion & Spirituality/Christianity,36
2010-06-01,Society & Culture,401
2010-06-01,Sports & Recreation,226
2010-06-01,TV & Film,201
2010-06-01,Technology,211
2010-07-01,Arts,362
2010-07-01,Business,289
2010-07-01,Comedy,326
2010-07-01,Education,213
2010-07-01,Games & Hobbies,213
2010-07-01,Health,145
2010-07-01,Kids & Family,126
2010-07-01,Music,660
2010-07-01,News & Politics,160
2010-07-01,Religion & Spirituality,607
2010-07-01,Religion & Spirituality/Christianity,29
2010-07-01,Society & Culture,367
2010-07-01,Sports & Recreation,262
2010-07-01,TV & Film,197
2010-07-01,Technology,215
2010-08-01,Arts,359
2010-08-01,Business,312
2010-08-01,Comedy,305
2010-08-01,Education,273
2010-08-01,Games & Hobbies,229
2010-08-01,Health,144
2010-08-01,Kids & Family,88
2010-08-01,Music,664
2010-08-01,News & Politics,159
2010-08-01,Religion & Spirituality,666
2010-08-01,Religion & Spirituality/Christianity,26
2010-08-01,Society & Culture,344
2010-08-01,Sports & Recreation,351
2010-08-01,TV & Film,228
2010-08-01,Technology,411
2010-09-01,Arts,341
2010-09-01,Business,325
2010-09-01,Comedy,259
2010-09-01,Education,252
2010-09-01,Games & Hobbies,233
2010-09-01,Health,168
2010-09-01,Kids & Family,84
2010-09-01,Music,736
2010-09-01,News & Politics,189
2010-09-01,Religion & Spirituality,598
2010-09-01,Religion & Spirituality/Christianity,24
2010-09-01,Society & Culture,358
2010-09-01,Sports & Recreation,410
2010-09-01,TV & Film,230
2010-09-01,Technology,235
2010-10-01,Arts,324
2010-10-01,Business,360
2010-10-01,Comedy,282
2010-10-01,Education,280
2010-10-01,Games & Hobbies,253
2010-10-01,Health,154
2010-10-01,Kids & Family,84
2010-10-01,Music,736
2010-10-01,News & Politics,222
2010-10-01,Religion & Spirituality,675
2010-10-01,Religion & Spirituality/Christianity,32
2010-10-01,Society & Culture,389
2010-10-01,Sports & Recreation,398
2010-10-01,TV & Film,253
2010-10-01,Technology,271
2010-11-01,Arts,270
2010-11-01,Business,365
2010-11-01,Comedy,328
2010-11-01,Education,296
2010-11-01,Games & Hobbies,214
2010-11-01,Health,169
2010-11-01,Kids & Family,184
2010-11-01,Music,743
2010-11-01,News & Politics,221
2010-11-01,Religion & Spirituality,651
2010-11-01,Religion & Spirituality/Christianity,34
2010-11-01,Society & Culture,440
2010-11-01,Sports & Recreation,468
2010-11-01,TV & Film,237
2010-11-01,Technology,236
2010-12-01,Arts,292
2010-12-01,Business,314
2010-12-01,Comedy,366
2010-12-01,Education,246
2010-12-01,Games & Hobbies,235
2010-12-01,Health,165
2010-12-01,Kids & Family,99
2010-12-01,Music,704
2010-12-01,News & Politics,240
2010-12-01,Religion & Spirituality,682
2010-12-01,Religion & Spirituality/Christianity,30
2010-12-01,Society & Culture,359
2010-12-01,Sports & Recreation,315
2010-12-01,TV & Film,233
2010-12-01,Technology,245
2011-01-01,Arts,311
2011-01-01,Business,357
2011-01-01,Comedy,333
2011-01-01,Education,219
2011-01-01,Games & Hobbies,240
2011-01-01,Health,155
2011-01-01,Kids & Family,207
2011-01-01,Music,699
2011-01-01,News & Politics,248
2011-01-01,Religion & Spirituality,721
2011-01-01,Religion & Spirituality/Christianity,27
2011-01-01,Society & Culture,375
2011-01-01,Sports & Recreation,299
2011-01-01,TV & Film,211
2011-01-01,Technology,246
2011-02-01,Arts,311
2011-02-01,Business,384
2011-02-01,Comedy,324
2011-02-01,Education,366
2011-02-01,Games & Hobbies,238
2011-02-01,Health,153
2011-02-01,Kids & Family,123
2011-02-01,Music,710
2011-02-01,News & Politics,244
2011-02-01,Religion & Spirituality,670
2011-02-01,Religion & Spirituality/Christianity,29
2011-02-01,Society & Culture,385
2011-02-01,Sports & Recreation,283
2011-02-01,TV & Film,206
2011-02-01,Technology,299
2011-03-01,Arts,354
2011-03-01,Business,457
2011-03-01,Comedy,367
2011-03-01,Education,349
2011-03-01,Games & Hobbies,267
2011-03-01,Health,173
2011-03-01,Kids & Family,116
2011-03-01,Music,820
2011-03-01,News & Politics,276
2011-03-01,Religion & Spirituality,786
2011-03-01,Religion & Spirituality/Christianity,36
2011-03-01,Society & Culture,466
2011-03-01,Sports & Recreation,403
2011-03-01,TV & Film,231
2011-03-01,Technology,298
2011-04-01,Arts,305
2011-04-01,Business,390
2011-04-01,Comedy,389
2011-04-01,Education,352
2011-04-01,Games & Hobbies,276
2011-04-01,Health,199
2011-04-01,Kids & Family,122
2011-04-01,Music,704
2011-04-01,News & Politics,234
2011-04-01,Religion & Spirituality,868
2011-04-01,Religion & Spirituality/Christianity,36
2011-04-01,Society & Culture,472
2011-04-01,Sports & Recreation,352
2011-04-01,TV & Film,244
2011-04-01,Technology,228
2011-05-01,Arts,400
2011-05-01,Business,424
2011-05-01,Comedy,445
2011-05-01,Education,397
2011-05-01,Games & Hobbies,281
2011-05-01,Health,197
2011-05-01,Kids & Family,156
2011-05-01,Music,720
2011-05-01,News & Politics,221
2011-05-01,Religion & Spirituality,736
2011-05-01,Religion & Spirituality/Christianity,35
2011-05-01,Society & Culture,466
2011-05-01,Sports & Recreation,301
2011-05-01,TV & Film,287
2011-05-01,Technology,224
2011-06-01,Arts,369
2011-06-01,Business,434
2011-06-01,Comedy,649
2011-06-01,Education,347
2011-06-01,Games & Hobbies,294
2011-06-01,Health,178
2011-06-01,Kids & Family,128
2011-06-01,Music,765
2011-06-01,News & Politics,263
2011-06-01,Religion & Spirituality,712
2011-06-01,Religion & Spirituality/Christianity,30
2011-06-01,Society & Culture,490
2011-06-01,Sports & Recreation,264
2011-06-01,TV & Film,267
2011-06-01,Technology,234
2011-07-01,Arts,362
2011-07-01,Business,380
2011-07-01,Comedy,440
2011-07-01,Education,287
2011-07-01,Games & Hobbies,295
2011-07-01,Health,193
2011-07-01,Kids & Family,191
2011-07-01,Music,778
2011-07-01,News & Politics,260
2011-07-01,Religion & Spirituality,774
2011-07-01,Religion & Spirituality/Christianity,29
2011-07-01,Society & Culture,454
2011-07-01,Sports & Recreation,217
2011-07-01,TV & Film,271
2011-07-01,Technology,283
2011-08-01,Arts,336
2011-08-01,Business,444
2011-08-01,Comedy,543
2011-08-01,Education,347
2011-08-01,Games & Hobbies,296
2011-08-01,Health,218
2011-08-01,Kids & Family,119
2011-08-01,Music,736
2011-08-01,News & Politics,255
2011-08-01,Religion & Spirituality,779
2011-08-01,Religion & Spirituality/Christianity,29
2011-08-01,Society & Culture,488
2011-08-01,Sports & Recreation,301
2011-08-01,TV & Film,290
2011-08-01,Technology,255
2011-09-01,Arts,348
2011-09-01,Business,419
2011-09-01,Comedy,478
2011-09-01,Education,435
2011-09-01,Games & Hobbies,321
2011-09-01,Health,234
2011-09-01,Kids & Family,169
2011-09-01,Music,1086
2011-09-01,News & Politics,268
2011-09-01,Religion & Spirituality,825
2011-09-01,Religion & Spirituality/Christianity,36
2011-09-01,Society & Culture,483
2011-09-01,Sports & Recreation,350
2011-09-01,TV & Film,338
2011-09-01,Technology,380
2011-10-01,Arts,397
2011-10-01,Business,409
2011-10-01,Comedy,439
2011-10-01,Education,371
2011-10-01,Games & Hobbies,322
2011-10-01,Health,248
2011-10-01,Kids & Family,217
2011-10-01,Music,986
2011-10-01,News & Politics,254
2011-10-01,Religion & Spirituality,846
2011-10-01,Religion & Spirituality/Christianity,34
2011-10-01,Society & Culture,548
2011-10-01,Sports & Recreation,385
2011-10-01,TV & Film,334
2011-10-01,Technology,270
2011-11-01,Arts,431
2011-11-01,Business,437
2011-11-01,Comedy,392
2011-11-01,Education,403
2011-11-01,Games & Hobbies,344
2011-11-01,Health,230
2011-11-01,Kids & Family,187
2011-11-01,Music,944
2011-11-01,News & Politics,251
2011-11-01,Religion & Spirituality,1048
2011-11-01,Religion & Spirituality/Christianity,43
2011-11-01,Society & Culture,554
2011-11-01,Sports & Recreation,373
2011-11-01,TV & Film,385
2011-11-01,Technology,260
2011-12-01,Arts,426
2011-12-01,Business,435
2011-12-01,Comedy,440
2011-12-01,Education,345
2011-12-01,Games & Hobbies,354
2011-12-01,Health,203
2011-12-01,Kids & Family,297
2011-12-01,Music,806
2011-12-01,News & Politics,233
2011-12-01,Religion & Spirituality,862
2011-12-01,Religion & Spirituality/Christianity,33
2011-12-01,Society & Culture,477
2011-12-01,Sports & Recreation,365
2011-12-01,TV & Film,399
2011-12-01,Technology,269
2012-01-01,Arts,422
2012-01-01,Business,493
2012-01-01,Comedy,404
2012-01-01,Education,413
2012-01-01,Games & Hobbies,360
2012-01-01,Health,279
2012-01-01,Kids & Family,123
2012-01-01,Music,916
2012-01-01,News & Politics,273
2012-01-01,Religion & Spirituality,1002
2012-01-01,Religion & Spirituality/Christianity,37
2012-01-01,Society & Culture,568
2012-01-01,Sports & Recreation,405
2012-01-01,TV & Film,426
2012-01-01,Technology,275
2012-02-01,Arts,411
2012-02-01,Business,504
2012-02-01,Comedy,456
2012-02-01,Education,429
2012-02-01,Games & Hobbies,384
2012-02-01,Health,281
2012-02-01,Kids & Family,130
2012-02-01,Music,819
2012-02-01,News & Politics,298
2012-02-01,Religion & Spirituality,877
2012-02-01,Religion & Spirituality/Christianity,30
2012-02-01,Society & Culture,529
2012-02-01,Sports & Recreation,393
2012-02-01,TV & Film,489
2012-02-01,Technology,314
2012-03-01,Arts,438
2012-03-01,Business,530
2012-03-01,Comedy,527
2012-03-01,Education,383
2012-03-01,Games & Hobbies,407
2012-03-01,Health,285
2012-03-01,Kids & Family,158
2012-03-01,Music,1030
2012-03-01,News & Politics,320
2012-03-01,Religion & Spirituality,951
2012-03-01,Religion & Spirituality/Christianity,41
2012-03-01,Society & Culture,568
2012-03-01,Sports & Recreation,448
2012-03-01,TV & Film,566
2012-03-01,Technology,375
2012-04-01,Arts,482
2012-04-01,Business,509
2012-04-01,Comedy,486
2012-04-01,Education,350
2012-04-01,Games & Hobbies,403
2012-04-01,Health,276
2012-04-01,Kids & Family,161
2012-04-01,Music,879
2012-04-01,News & Politics,314
2012-04-01,Religion & Spirituality,1016
2012-04-01,Religion & Spirituality/Christianity,34
2012-04-01,Society & Culture,610
2012-04-01,Sports & Recreation,451
2012-04-01,TV & Film,568
2012-04-01,Technology,528
2012-05-01,Arts,512
2012-05-01,Business,530
2012-05-01,Comedy,532
2012-05-01,Education,408
2012-05-01,Games & Hobbies,409
2012-05-01,Health,257
2012-05-01,Kids & Family,124
2012-05-01,Music,900
2012-05-01,News & Politics,336
2012-05-01,Religion & Spirituality,958
2012-05-01,Religion & Spirituality/Christianity,37
2012-05-01,Society & Culture,549
2012-05-01,Sports & Recreation,436
2012-05-01,TV & Film,495
2012-05-01,Technology,450
2012-06-01,Arts,507
2012-06-01,Business,534
2012-06-01,Comedy,529
2012-06-01,Education,356
2012-06-01,Games & Hobbies,417
2012-06-01,Health,285
2012-06-01,Kids & Family,108
2012-06-01,Music,891
2012-06-01,News & Politics,341
2012-06-01,Religion & Spirituality,995
2012-06-01,Religion & Spirituality/Christianity,30
2012-06-01,Society & Culture,572
2012-06-01,Sports & Recreation,397
2012-06-01,TV & Film,390
2012-06-01,Technology,385
2012-07-01,Arts,516
2012-07-01,Business,567
2012-07-01,Comedy,746
2012-07-01,Education,392
2012-07-01,Games & Hobbies,464
2012-07-01,Health,280
2012-07-01,Kids & Family,123
2012-07-01,Music,816
2012-07-01,News & Politics,317
2012-07-01,Religion & Spirituality,1104
2012-07-01,Religion & Spirituality/Christianity,46
2012-07-01,Society & Culture,568
2012-07-01,Sports & Recreation,442
2012-07-01,TV & Film,453
2012-07-01,Technology,352
2012-08-01,Arts,549
2012-08-01,Business,525
2012-08-01,Comedy,598
2012-08-01,Education,349
2012-08-01,Games & Hobbies,452
2012-08-01,Health,287
2012-08-01,Kids & Family,149
2012-08-01,Music,846
2012-08-01,News & Politics,380
2012-08-01,Religion & Spirituality,1056
2012-08-01,Religion & Spirituality/Christianity,36
2012-08-01,Society & Culture,556
2012-08-01,Sports & Recreation,478
2012-08-01,TV & Film,509
2012-08-01,Technology,491
2012-09-01,Arts,450
2012-09-01,Business,513
2012-09-01,Comedy,649
2012-09-01,Education,351
2012-09-01,Games & Hobbies,458
2012-09-01,Health,281
2012-09-01,Kids & Family,157
2012-09-01,Music,855
2012-09-01,News & Politics,383
2012-09-01,Religion & Spirituality,1176
2012-09-01,Religion & Spirituality/Christianity,41
2012-09-01,Society & Culture,707
2012-09-01,Sports & Recreation,498
2012-09-01,TV & Film,521
2012-09-01,Technology,446
2012-10-01,Arts,530
2012-10-01,Business,618
2012-10-01,Comedy,694
2012-10-01,Education,388
2012-10-01,Games & Hobbies,521
2012-10-01,Health,332
2012-10-01,Kids & Family,294
2012-10-01,Music,1024
2012-10-01,News & Politics,427
2012-10-01,Religion & Spirituality,1215
2012-10-01,Religion & Spirituality/Christianity,47
2012-10-01,Society & Culture,690
2012-10-01,Sports & Recreation,567
2012-10-01,TV & Film,635
2012-10-01,Technology,716
2012-11-01,Arts,485
2012-11-01,Business,598
2012-11-01,Comedy,715
2012-11-01,Education,366
2012-11-01,Games & Hobbies,510
2012-11-01,Health,336
2012-11-01,Kids & Family,315
2012-11-01,Music,947
2012-11-01,News & Politics,380
2012-11-01,Religion & Spirituality,1141
2012-11-01,Religion & Spirituality/Christianity,36
2012-11-01,Society & Culture,722
2012-11-01,Sports & Recreation,516
2012-11-01,TV & Film,596
2012-11-01,Technology,482
2012-12-01,Arts,532
2012-12-01,Business,547
2012-12-01,Comedy,616
2012-12-01,Education,384
2012-12-01,Games & Hobbies,489
2012-12-01,Health,340
2012-12-01,Kids & Family,320
2012-12-01,Music,1003
2012-12-01,News & Politics,340
2012-12-01,Religion & Spirituality,1079
2012-12-01,Religion & Spirituality/Christianity,38
2012-12-01,Society & Culture,646
2012-12-01,Sports & Recreation,473
2012-12-01,TV & Film,562
2012-12-01,Technology,423
2013-01-01,Arts,465
2013-01-01,Business,642
2013-01-01,Comedy,743
2013-01-01,Education,363
2013-01-01,Games & Hobbies,509
2013-01-01,Health,404
2013-01-01,Kids & Family,170
2013-01-01,Music,1021
2013-01-01,News & Politics,444
2013-01-01,Religion & Spirituality,1152
2013-01-01,Religion & Spirituality/Christianity,35
2013-01-01,Society & Culture,784
2013-01-01,Sports & Recreation,524
2013-01-01,TV & Film,624
2013-01-01,Technology,440
2013-02-01,Arts,562
2013-02-01,Business,634
2013-02-01,Comedy,783
2013-02-01,Education,441
2013-02-01,Games & Hobbies,494
2013-02-01,Health,374
2013-02-01,Kids & Family,124
2013-02-01,Music,1053
2013-02-01,News & Politics,497
2013-02-01,Religion & Spirituality,1083
2013-02-01,Religion & Spirituality/Christianity,44
2013-02-01,Society & Culture,778
2013-02-01,Sports & Recreation,455
2013-02-01,TV & Film,621
2013-02-01,Technology,469
2013-03-01,Arts,532
2013-03-01,Business,699
2013-03-01,Comedy,821
2013-03-01,Education,433
2013-03-01,Games & Hobbies,558
2013-03-01,Health,508
2013-03-01,Kids & Family,123
2013-03-01,Music,1202
2013-03-01,News & Politics,487
2013-03-01,Religion & Spirituality,1361
2013-03-01,Religion & Spirituality/Christianity,47
2013-03-01,Society & Culture,795
2013-03-01,Sports & Recreation,543
2013-03-01,TV & Film,723
2013-03-01,Technology,576
2013-04-01,Arts,571
2013-04-01,Business,718
2013-04-01,Comedy,890
2013-04-01,Education,533
2013-04-01,Games & Hobbies,562
2013-04-01,Health,541
2013-04-01,Kids & Family,156
2013-04-01,Music,1091
2013-04-01,News & Politics,510
2013-04-01,Religion & Spirituality,1475
2013-04-01,Religion & Spirituality/Christianity,49
2013-04-01,Society & Culture,817
2013-04-01,Sports & Recreation,595
2013-04-01,TV & Film,705
2013-04-01,Technology,577
2013-05-01,Arts,583
2013-05-01,Business,842
2013-05-01,Comedy,788
2013-05-01,Education,463
2013-05-01,Games & Hobbies,595
2013-05-01,Health,596
2013-05-01,Kids & Family,155
2013-05-01,Music,1171
2013-05-01,News & Politics,604
2013-05-01,Religion & Spirituality,1286
2013-05-01,Religion & Spirituality/Christianity,81
2013-05-01,Society & Culture,897
2013-05-01,Sports & Recreation,627
2013-05-01,TV & Film,762
2013-05-01,Technology,722
2013-06-01,Arts,597
2013-06-01,Business,721
2013-06-01,Comedy,761
2013-06-01,Education,425
2013-06-01,Games & Hobbies,588
2013-06-01,Health,496
2013-06-01,Kids & Family,142
2013-06-01,Music,1075
2013-06-01,News & Politics,569
2013-06-01,Religion & Spirituality,1289
2013-06-01,Religion & Spirituality/Christianity,39
2013-06-01,Society & Culture,794
2013-06-01,Sports & Recreation,510
2013-06-01,TV & Film,677
2013-06-01,Technology,666
2013-07-01,Arts,651
2013-07-01,Business,772
2013-07-01,Comedy,868
2013-07-01,Education,361
2013-07-01,Games & Hobbies,697
2013-07-01,Health,518
2013-07-01,Kids & Family,178
2013-07-01,Music,1082
2013-07-01,News & Politics,625
2013-07-01,Religion & Spirituality,1355
2013-07-01,Religion & Spirituality/Christianity,35
2013-07-01,Society & Culture,767
2013-07-01,Sports & Recreation,584
2013-07-01,TV & Film,722
2013-07-01,Technology,575
2013-08-01,Arts,721
2013-08-01,Business,844
2013-08-01,Comedy,854
2013-08-01,Education,386
2013-08-01,Games & Hobbies,688
2013-08-01,Health,522
2013-08-01,Kids & Family,196
2013-08-01,Music,1100
2013-08-01,News & Politics,532
2013-08-01,Religion & Spirituality,1369
2013-08-01,Religion & Spirituality/Christianity,37
2013-08-01,Society & Culture,752
2013-08-01,Sports & Recreation,692
2013-08-01,TV & Film,786
2013-08-01,Technology,865
2013-09-01,Arts,715
2013-09-01,Business,831
2013-09-01,Comedy,856
2013-09-01,Education,352
2013-09-01,Games & Hobbies,643
2013-09-01,Health,548
2013-09-01,Kids & Family,139
2013-09-01,Music,1100
2013-09-01,News & Politics,456
2013-09-01,Religion & Spirituality,1319
2013-09-01,Religion & Spirituality/Christianity,60
2013-09-01,Society & Culture,812
2013-09-01,Sports & Recreation,746
2013-09-01,TV & Film,787
2013-09-01,Technology,588
2013-10-01,Arts,829
2013-10-01,Business,999
2013-10-01,Comedy,936
2013-10-01,Education,425
2013-10-01,Games & Hobbies,685
2013-10-01,Health,596
2013-10-01,Kids & Family,334
2013-10-01,Music,1230
2013-10-01,News & Politics,531
2013-10-01,Religion & Spirituality,1645
2013-10-01,Religion & Spirituality/Christianity,46
2013-10-01,Society & Culture,904
2013-10-01,Sports & Recreation,820
2013-10-01,TV & Film,933
2013-10-01,Technology,709
2013-11-01,Arts,809
2013-11-01,Business,979
2013-11-01,Comedy,908
2013-11-01,Education,477
2013-11-01,Games & Hobbies,634
2013-11-01,Health,583
2013-11-01,Kids & Family,451
2013-11-01,Music,1198
2013-11-01,News & Politics,489
2013-11-01,Religion & Spirituality,1732
2013-11-01,Religion & Spirituality/Christianity,50
2013-11-01,Society & Culture,844
2013-11-01,Sports & Recreation,712
2013-11-01,TV & Film,881
2013-11-01,Technology,590
2013-12-01,Arts,796
2013-12-01,Business,1009
2013-12-01,Comedy,933
2013-12-01,Education,463
2013-12-01,Games & Hobbies,635
2013-12-01,Health,589
2013-12-01,Kids & Family,469
2013-12-01,Music,1238
2013-12-01,News & Politics,415
2013-12-01,Religion & Spirituality,1459
2013-12-01,Religion & Spirituality/Christianity,58
2013-12-01,Society & Culture,896
2013-12-01,Sports & Recreation,660
2013-12-01,TV & Film,827
2013-12-01,Technology,553
2014-01-01,Arts,858
2014-01-01,Business,1252
2014-01-01,Comedy,1031
2014-01-01,Education,567
2014-01-01,Games & Hobbies,687
2014-01-01,Health,716
2014-01-01,Kids & Family,177
2014-01-01,Music,1207
2014-01-01,News & Politics,438
2014-01-01,Religion & Spirituality,1901
2014-01-01,Religion & Spirituality/Christianity,53
2014-01-01,Society & Culture,972
2014-01-01,Sports & Recreation,659
2014-01-01,TV & Film,846
2014-01-01,Technology,558
2014-02-01,Arts,887
2014-02-01,Business,1261
2014-02-01,Comedy,985
2014-02-01,Education,608
2014-02-01,Games & Hobbies,655
2014-02-01,Health,774
2014-02-01,Kids & Family,189
2014-02-01,Music,1227
2014-02-01,News & Politics,448
2014-02-01,Religion & Spirituality,1431
2014-02-01,Religion & Spirituality/Christianity,62
2014-02-01,Society & Culture,940
2014-02-01,Sports & Recreation,590
2014-02-01,TV & Film,837
2014-02-01,Technology,668
2014-03-01,Arts,1053
2014-03-01,Business,1477
2014-03-01,Comedy,1237
2014-03-01,Education,742
2014-03-01,Games & Hobbies,720
2014-03-01,Health,902
2014-03-01,Kids & Family,230
2014-03-01,Music,1325
2014-03-01,News & Politics,567
2014-03-01,Religion & Spirituality,1613
2014-03-01,Religion & Spirituality/Christianity,65
2014-03-01,Society & Culture,1097
2014-03-01,Sports & Recreation,732
2014-03-01,TV & Film,1033
2014-03-01,Technology,589
2014-04-01,Arts,980
2014-04-01,Business,1548
2014-04-01,Comedy,1206
2014-04-01,Education,593
2014-04-01,Games & Hobbies,747
2014-04-01,Health,909
2014-04-01,Kids & Family,291
2014-04-01,Music,1268
2014-04-01,News & Politics,489
2014-04-01,Religion & Spirituality,1515
2014-04-01,Religion & Spirituality/Christianity,60
2014-04-01,Society & Culture,1037
2014-04-01,Sports & Recreation,766
2014-04-01,TV & Film,1082
2014-04-01,Technology,660
2014-05-01,Arts,970
2014-05-01,Business,1424
2014-05-01,Comedy,1086
2014-05-01,Education,577
2014-05-01,Games & Hobbies,729
2014-05-01,Health,1019
2014-05-01,Kids & Family,305
2014-05-01,Music,1309
2014-05-01,News & Politics,538
2014-05-01,Religion & Spirituality,1490
2014-05-01,Religion & Spirituality/Christianity,50
2014-05-01,Society & Culture,1174
2014-05-01,Sports & Recreation,668
2014-05-01,TV & Film,1110
2014-05-01,Technology,616
2014-06-01,Arts,937
2014-06-01,Business,1334
2014-06-01,Comedy,1099
2014-06-01,Education,493
2014-06-01,Games & Hobbies,707
2014-06-01,Health,858
2014-06-01,Kids & Family,369
2014-06-01,Music,1219
2014-06-01,News & Politics,556
2014-06-01,Religion & Spirituality,1472
2014-06-01,Religion & Spirituality/Christianity,57
2014-06-01,Society & Culture,1025
2014-06-01,Sports & Recreation,646
2014-06-01,TV & Film,981
2014-06-01,Technology,636
2014-07-01,Arts,895
2014-07-01,Business,1452
2014-07-01,Comedy,1240
2014-07-01,Education,452
2014-07-01,Games & Hobbies,694
2014-07-01,Health,771
2014-07-01,Kids & Family,449
2014-07-01,Music,1150
2014-07-01,News & Politics,574
2014-07-01,Religion & Spirituality,1452
2014-07-01,Religion & Spirituality/Christianity,46
2014-07-01,Society & Culture,1043
2014-07-01,Sports & Recreation,660
2014-07-01,TV & Film,943
2014-07-01,Technology,621
2014-08-01,Arts,924
2014-08-01,Business,1406
2014-08-01,Comedy,1530
2014-08-01,Education,437
2014-08-01,Games & Hobbies,680
2014-08-01,Health,726
2014-08-01,Kids & Family,291
2014-08-01,Music,1128
2014-08-01,News & Politics,535
2014-08-01,Religion & Spirituality,1422
2014-08-01,Religion & Spirituality/Christianity,154
2014-08-01,Society & Culture,1005
2014-08-01,Sports & Recreation,664
2014-08-01,TV & Film,920
2014-08-01,Technology,577
2014-09-01,Arts,752
2014-09-01,Business,1471
2014-09-01,Comedy,1025
2014-09-01,Education,480
2014-09-01,Games & Hobbies,678
2014-09-01,Health,756
2014-09-01,Kids & Family,359
2014-09-01,Music,1253
2014-09-01,News & Politics,507
2014-09-01,Religion & Spirituality,1554
2014-09-01,Religion & Spirituality/Christianity,87
2014-09-01,Society & Culture,1056
2014-09-01,Sports & Recreation,705
2014-09-01,TV & Film,921
2014-09-01,Technology,600
2014-10-01,Arts,842
2014-10-01,Business,1661
2014-10-01,Comedy,1175
2014-10-01,Education,580
2014-10-01,Games & Hobbies,732
2014-10-01,Health,810
2014-10-01,Kids & Family,438
2014-10-01,Music,1309
2014-10-01,News & Politics,753
2014-10-01,Religion & Spirituality,1722
2014-10-01,Religion & Spirituality/Christianity,81
2014-10-01,Society & Culture,1210
2014-10-01,Sports & Recreation,892
2014-10-01,TV & Film,1153
2014-10-01,Technology,654
2014-11-01,Arts,791
2014-11-01,Business,1496
2014-11-01,Comedy,1092
2014-11-01,Education,467
2014-11-01,Games & Hobbies,674
2014-11-01,Health,745
2014-11-01,Kids & Family,465
2014-11-01,Music,1235
2014-11-01,News & Politics,616
2014-11-01,Religion & Spirituality,1507
2014-11-01,Religion & Spirituality/Christianity,77
2014-11-01,Society & Culture,1091
2014-11-01,Sports & Recreation,885
2014-11-01,TV & Film,1024
2014-11-01,Technology,627
2014-12-01,Arts,876
2014-12-01,Business,1567
2014-12-01,Comedy,1136
2014-12-01,Education,536
2014-12-01,Games & Hobbies,673
2014-12-01,Health,846
2014-12-01,Kids & Family,566
2014-12-01,Music,1232
2014-12-01,News & Politics,625
2014-12-01,Religion & Spirituality,1557
2014-12-01,Religion & Spirituality/Christianity,74
2014-12-01,Society & Culture,1042
2014-12-01,Sports & Recreation,742
2014-12-01,TV & Film,975
2014-12-01,Technology,612
2015-01-01,Arts,914
2015-01-01,Business,1709
2015-01-01,Comedy,1066
2015-01-01,Education,681
2015-01-01,Games & Hobbies,698
2015-01-01,Health,903
2015-01-01,Kids & Family,316
2015-01-01,Music,1388
2015-01-01,News & Politics,664
2015-01-01,Religion & Spirituality,1688
2015-01-01,Religion & Spirituality/Christianity,115
2015-01-01,Society & Culture,1055
2015-01-01,Sports & Recreation,756
2015-01-01,TV & Film,998
2015-01-01,Technology,636
2015-02-01,Arts,850
2015-02-01,Business,1642
2015-02-01,Comedy,1045
2015-02-01,Education,637
2015-02-01,Games & Hobbies,721
2015-02-01,Health,891
2015-02-01,Kids & Family,365
2015-02-01,Music,1309
2015-02-01,News & Politics,623
2015-02-01,Religion & Spirituality,1524
2015-02-01,Religion & Spirituality/Christianity,118
2015-02-01,Society & Culture,1171
2015-02-01,Sports & Recreation,757
2015-02-01,TV & Film,1103
2015-02-01,Technology,571
2015-03-01,Arts,875
2015-03-01,Business,1902
2015-03-01,Comedy,1274
2015-03-01,Education,684
2015-03-01,Games & Hobbies,851
2015-03-01,Health,947
2015-03-01,Kids & Family,327
2015-03-01,Music,1419
2015-03-01,News & Politics,722
2015-03-01,Religion & Spirituality,1736
2015-03-01,Religion & Spirituality/Christianity,143
2015-03-01,Society & Culture,1266
2015-03-01,Sports & Recreation,926
2015-03-01,TV & Film,1215
2015-03-01,Technology,642
2015-04-01,Arts,878
2015-04-01,Business,1830
2015-04-01,Comedy,1206
2015-04-01,Education,613
2015-04-01,Games & Hobbies,827
2015-04-01,Health,1011
2015-04-01,Kids & Family,354
2015-04-01,Music,1338
2015-04-01,News & Politics,823
2015-04-01,Religion & Spirituality,1650
2015-04-01,Religion & Spirituality/Christianity,126
2015-04-01,Society & Culture,1160
2015-04-01,Sports & Recreation,896
2015-04-01,TV & Film,1237
2015-04-01,Technology,696
2015-05-01,Arts,861
2015-05-01,Business,1731
2015-05-01,Comedy,1222
2015-05-01,Education,555
2015-05-01,Games & Hobbies,767
2015-05-01,Health,928
2015-05-01,Kids & Family,300
2015-05-01,Music,1440
2015-05-01,News & Politics,839
2015-05-01,Religion & Spirituality,1758
2015-05-01,Religion & Spirituality/Christianity,152
2015-05-01,Society & Culture,1170
2015-05-01,Sports & Recreation,875
2015-05-01,TV & Film,1184
2015-05-01,Technology,678
2015-06-01,Arts,942
2015-06-01,Business,1771
2015-06-01,Comedy,1279
2015-06-01,Education,571
2015-06-01,Games & Hobbies,807
2015-06-01,Health,917
2015-06-01,Kids & Family,304
2015-06-01,Music,1295
2015-06-01,News & Politics,855
2015-06-01,Religion & Spirituality,1748
2015-06-01,Religion & Spirituality/Christianity,130
2015-06-01,Society & Culture,1135
2015-06-01,Sports & Recreation,896
2015-06-01,TV & Film,1111
2015-06-01,Technology,712
2015-07-01,Arts,939
2015-07-01,Business,1737
2015-07-01,Comedy,1312
2015-07-01,Education,654
2015-07-01,Games & Hobbies,790
2015-07-01,Health,943
2015-07-01,Kids & Family,348
2015-07-01,Music,1318
2015-07-01,News & Politics,859
2015-07-01,Religion & Spirituality,2071
2015-07-01,Religion & Spirituality/Christianity,121
2015-07-01,Society & Culture,1209
2015-07-01,Sports & Recreation,884
2015-07-01,TV & Film,1088
2015-07-01,Technology,603
2015-08-01,Arts,879
2015-08-01,Business,1771
2015-08-01,Comedy,1329
2015-08-01,Education,508
2015-08-01,Games & Hobbies,781
2015-08-01,Health,1347
2015-08-01,Kids & Family,370
2015-08-01,Music,1298
2015-08-01,News & Politics,820
2015-08-01,Religion & Spirituality,1957
2015-08-01,Religion & Spirituality/Christianity,134
2015-08-01,Society & Culture,1263
2015-08-01,Sports & Recreation,1019
2015-08-01,TV & Film,1024
2015-08-01,Technology,557
2015-09-01,Arts,856
2015-09-01,Business,1857
2015-09-01,Comedy,1312
2015-09-01,Education,543
2015-09-01,Games & Hobbies,765
2015-09-01,Health,1119
2015-09-01,Kids & Family,378
2015-09-01,Music,1511
2015-09-01,News & Politics,848
2015-09-01,Religion & Spirituality,1842
2015-09-01,Religion & Spirituality/Christianity,142
2015-09-01,Society & Culture,1263
2015-09-01,Sports & Recreation,1190
2015-09-01,TV & Film,1045
2015-09-01,Technology,597
2015-10-01,Arts,972
2015-10-01,Business,1833
2015-10-01,Comedy,1432
2015-10-01,Education,620
2015-10-01,Games & Hobbies,809
2015-10-01,Health,1148
2015-10-01,Kids & Family,402
2015-10-01,Music,1603
2015-10-01,News & Politics,1189
2015-10-01,Religion & Spirituality,1927
2015-10-01,Religion & Spirituality/Christianity,307
2015-10-01,Society & Culture,1403
2015-10-01,Sports & Recreation,1250
2015-10-01,TV & Film,1216
2015-10-01,Technology,638
2015-11-01,Arts,1012
2015-11-01,Business,1780
2015-11-01,Comedy,1414
2015-11-01,Education,622
2015-11-01,Games & Hobbies,751
2015-11-01,Health,1082
2015-11-01,Kids & Family,495
2015-11-01,Music,1539
2015-11-01,News & Politics,1098
2015-11-01,Religion & Spirituality,2022
2015-11-01,Religion & Spirituality/Christianity,149
2015-11-01,Society & Culture,1318
2015-11-01,Sports & Recreation,1270
2015-11-01,TV & Film,1192
2015-11-01,Technology,636
2015-12-01,Arts,1418
2015-12-01,Business,1801
2015-12-01,Comedy,1628
2015-12-01,Education,596
2015-12-01,Games & Hobbies,807
2015-12-01,Health,1143
2015-12-01,Kids & Family,591
2015-12-01,Music,1486
2015-12-01,News & Politics,1430
2015-12-01,Religion & Spirituality,2033
2015-12-01,Religion & Spirituality/Christianity,154
2015-12-01,Society & Culture,1338
2015-12-01,Sports & Recreation,1417
2015-12-01,TV & Film,1160
2015-12-01,Technology,650
2016-01-01,Arts,1335
2016-01-01,Business,1872
2016-01-01,Comedy,1650
2016-01-01,Education,690
2016-01-01,Games & Hobbies,825
2016-01-01,Health,1134
2016-01-01,Kids & Family,521
2016-01-01,Music,1610
2016-01-01,News & Politics,1533
2016-01-01,Religion & Spirituality,2292
2016-01-01,Religion & Spirituality/Christianity,171
2016-01-01,Society & Culture,1434
2016-01-01,Sports & Recreation,1559
2016-01-01,TV & Film,1071
2016-01-01,Technology,732
2016-02-01,Arts,1519
2016-02-01,Business,1916
2016-02-01,Comedy,1796
2016-02-01,Education,721
2016-02-01,Games & Hobbies,833
2016-02-01,Health,1174
2016-02-01,Kids & Family,618
2016-02-01,Music,1599
2016-02-01,News & Politics,1631
2016-02-01,Religion & Spirituality,2395
2016-02-01,Religion & Spirituality/Christianity,177
2016-02-01,Society & Culture,1502
2016-02-01,Sports & Recreation,1486
2016-02-01,TV & Film,1292
2016-02-01,Technology,724
2016-03-01,Arts,1505
2016-03-01,Business,2036
2016-03-01,Comedy,1947
2016-03-01,Education,762
2016-03-01,Games & Hobbies,927
2016-03-01,Health,1347
2016-03-01,Kids & Family,558
2016-03-01,Music,1661
2016-03-01,News & Politics,1785
2016-03-01,Religion & Spirituality,2353
2016-03-01,Religion & Spirituality/Christianity,188
2016-03-01,Society & Culture,1585
2016-03-01,Sports & Recreation,1647
2016-03-01,TV & Film,1342
2016-03-01,Technology,770
2016-04-01,Arts,1539
2016-04-01,Business,1963
2016-04-01,Comedy,1841
2016-04-01,Education,595
2016-04-01,Games & Hobbies,879
2016-04-01,Health,1168
2016-04-01,Kids & Family,582
2016-04-01,Music,1593
2016-04-01,News & Politics,1773
2016-04-01,Religion & Spirituality,2284
2016-04-01,Religion & Spirituality/Christianity,168
2016-04-01,Society & Culture,1984
2016-04-01,Sports & Recreation,1610
2016-04-01,TV & Film,1306
2016-04-01,Technology,768
2016-05-01,Arts,1574
2016-05-01,Business,2093
2016-05-01,Comedy,1993
2016-05-01,Education,650
2016-05-01,Games & Hobbies,953
2016-05-01,Health,1224
2016-05-01,Kids & Family,595
2016-05-01,Music,1642
2016-05-01,News & Politics,1936
2016-05-01,Religion & Spirituality,2523
2016-05-01,Religion & Spirituality/Christianity,183
2016-05-01,Society & Culture,1687
2016-05-01,Sports & Recreation,1672
2016-05-01,TV & Film,1460
2016-05-01,Technology,772
2016-06-01,Arts,1522
2016-06-01,Business,2129
2016-06-01,Comedy,1991
2016-06-01,Education,678
2016-06-01,Games & Hobbies,967
2016-06-01,Health,1232
2016-06-01,Kids & Family,601
2016-06-01,Music,1753
2016-06-01,News & Politics,2038
2016-06-01,Religion & Spirituality,2545
2016-06-01,Religion & Spirituality/Christianity,145
2016-06-01,Society & Culture,1814
2016-06-01,Sports & Recreation,1725
2016-06-01,TV & Film,1265
2016-06-01,Technology,949
2016-07-01,Arts,1494
2016-07-01,Business,2082
2016-07-01,Comedy,1785
2016-07-01,Education,705
2016-07-01,Games & Hobbies,957
2016-07-01,Health,1224
2016-07-01,Kids & Family,581
2016-07-01,Music,1959
2016-07-01,News & Politics,2407
2016-07-01,Religion & Spirituality,2695
2016-07-01,Religion & Spirituality/Christianity,160
2016-07-01,Society & Culture,1888
2016-07-01,Sports & Recreation,1747
2016-07-01,TV & Film,1186
2016-07-01,Technology,833
2016-08-01,Arts,1658
2016-08-01,Business,2356
2016-08-01,Comedy,2051
2016-08-01,Education,753
2016-08-01,Games & Hobbies,971
2016-08-01,Health,1328
2016-08-01,Kids & Family,629
2016-08-01,Music,1944
2016-08-01,News & Politics,2842
2016-08-01,Religion & Spirituality,2837
2016-08-01,Religion & Spirituality/Christianity,162
2016-08-01,Society & Culture,2189
2016-08-01,Sports & Recreation,2058
2016-08-01,TV & Film,1237
2016-08-01,Technology,885
2016-09-01,Arts,1733
2016-09-01,Business,2300
2016-09-01,Comedy,2077
2016-09-01,Education,736
2016-09-01,Games & Hobbies,1148
2016-09-01,Health,1325
2016-09-01,Kids & Family,625
2016-09-01,Music,1908
2016-09-01,News & Politics,3137
2016-09-01,Religion & Spirituality,2859
2016-09-01,Religion & Spirituality/Christianity,166
2016-09-01,Society & Culture,2410
2016-09-01,Sports & Recreation,2275
2016-09-01,TV & Film,1456
2016-09-01,Technology,954
2016-10-01,Arts,2019
2016-10-01,Business,2358
2016-10-01,Comedy,2384
2016-10-01,Education,823
2016-10-01,Games & Hobbies,1080
2016-10-01,Health,1458
2016-10-01,Kids & Family,888
2016-10-01,Music,2165
2016-10-01,News & Politics,4603
2016-10-01,Religion & Spirituality,3211
2016-10-01,Religion & Spirituality/Christianity,178
2016-10-01,Society & Culture,3038
2016-10-01,Sports & Recreation,2984
2016-10-01,TV & Film,1626
2016-10-01,Technology,1010
2016-11-01,Arts,2087
2016-11-01,Business,2389
2016-11-01,Comedy,2255
2016-11-01,Education,849
2016-11-01,Games & Hobbies,933
2016-11-01,Health,1265
2016-11-01,Kids & Family,1124
2016-11-01,Music,1907
2016-11-01,News & Politics,7373
2016-11-01,Religion & Spirituality,3026
2016-11-01,Religion & Spirituality/Christianity,141
2016-11-01,Society & Culture,3358
2016-11-01,Sports & Recreation,3230
2016-11-01,TV & Film,1373
2016-11-01,Technology,919
