location_name,location_state,salary_id
new york,NY,66
"san francisco, ca",CA,25
"seattle, wa",WA,23
"redmond, wa",WA,18
"austin, tx",TX,17
"cambridge, ma",MA,10
"mountain view, ca",CA,10
"boston, ma",MA,9
washington dc,WA,8
"denver, co",CO,8
"portland, or",OR,8
"washington, dc",WA,7
"chicago, il",IL,7
"madison, wi",WI,6
"san jose, ca",CA,6
"boulder, co",CO,5
"columbus, oh",OH,5
"pittsburgh, pa",PA,5
"atlanta, ga",GA,5
"philadelphia, pa",PA,5
california,CA,4
"redwood city, ca",CA,4
"salt lake city, ut",UT,4
"durham, nc",NC,4
"minneapolis, mn",MN,4
"toronto, on",ON,4
"los angeles, ca",CA,4
"baltimore, md",MD,4
"folsom, ca",CA,3
washington d.c.,WA,3
"menlo park, ca",CA,3
"sacramento, ca",CA,3
maryland,MD,3
"detroit, mi",MI,3
"ann arbor, mi",MI,3
"irvine, ca",CA,3
"raleigh, nc",NC,3
"houston, tx",TX,3
"kansas city, mo",KS,3
"hillsboro, oregon",OR,3
"radnor, pa",PA,2
michigan,MI,2
oregon,OR,2
colorado,CO,2
"greenville, sc",SC,2
"culver city, ca",CA,2
"dallas, tx",TX,2
"phoenix, az",AZ,2
"falls church, va, usa",VA,2
"omaha, ne",NE,2
"new york, new york",NE,2
north carolina,NC,2
"oakland, ca",CA,2
"redmond, washington",WA,2
"oklahoma city, ok",OK,2
"pleasanton, ca",CA,2
"olathe, ks",KS,2
"palo alto, ca",CA,2
"cupertino, ca",CA,2
"beaverton, or",OR,2
"sterling, va",VA,2
"cleveland, oh",OH,2
"sunnyvale, ca",CA,2
cambridge ma,MA,2
"verona, wisconsin",WI,2
"st petersburg, fl",FL,2
"tampa, fl",FL,2
southern california,CA,2
"vancouver, bc",BC,2
"schenectady, ny",NY,2
austin tx,TX,2
vancouver bc,BC,2