city,rating
Wodland Hills,4.5
Los Angeles,4.125
Winnetka,4.0
Simi Valley,3.9705882352941178
Agoura Hills,3.9444444444444446
Woodland Hills,3.9339622641509435
Canoga Park,3.8947368421052633
Chatsworth,3.857142857142857
Calabasas,3.8157894736842106
West Hills,3.6666666666666665
